_ws.col.No.,_ws.col.Time,_ws.col.Source,_ws.col.Destination,_ws.col.Protocol,_ws.col.Length,_ws.col.Info
"1","0.000000","Vmware_ba:09:ea","SiemensN_93:cf:32","PN-DCP","56","Ident Req, Xid:0x1000001, All"
"2","0.040945","SiemensN_93:cf:32","Vmware_ba:09:ea","PN-DCP","120","Ident Ok , Xid:0x1000001, Dev-Options(13), DeviceVendorValue, NameOfStation:"X208-BORD", Dev-ID, Dev-Role, IP"
"3","1.422085","Vmware_ba:09:ea","SiemensN_93:cf:32","PN-DCP","56","Set Req, Xid:0x1000001, IP"
"4","1.450029","SiemensN_93:cf:32","Vmware_ba:09:ea","PN-DCP","60","Set Ok , Xid:0x1000001, Response(Ok)"
"5","1.470034","SiemensN_93:cf:32","Broadcast","ARP","60","Who has 192.168.0.10? Tell 192.168.0.6"
"6","1.834109","SiemensN_93:cf:32","Broadcast","ARP","60","Gratuitous ARP for 192.168.0.10 (Reply)"
